key,description,unit
``gllbsc_dir_gap``,Direct bandgap GLLB-SC.,eV
``gllbsc_ind_gap``,Indirect bandgap GLLB-SC.,eV
``gllbsc_disc``,Derivative discontinuity GLLB-SC.,eV
``mpid``,ID of materials in Materials project,
``icsd_id``,ID of materials in ICSD,
``g0w0_gap``,G0W0 gap at Gamma,eV
``gw0_gap``,GW0 gap at Gamma,eV
``gw_gap``,GW gap at Gamma,eV
``hse06_gap``,HSE06 gap at Gamma,eV
``lda_gap``,LDA gap at Gamma,eV
``gllbsc_gap``,GLLBSC gap at Gamma,eV
